STAT 570 HW1
…
STAT 570 HW1

Hoousing in Luxembourg

We are going to use data about house prices in Luxembourg that is a little Western European country the author hails from that looks like a shoe and is about the size of .98 Rhode Islands.

Downloading Dataset

Before we download the dataset, let’s load some packages:

Now, let’s downloads the data, and outs it in a data frame:

Let’s see the data set:

# A tibble: 1,343 × 5
   year  locality    n_offers average_price_nominal_euros average_price_m2_nom…¹
   <chr> <chr>          <dbl> <chr>                       <chr>                 
 1 2010  Bascharage       192 593698.31000000006          3603.57               
 2 2010  Beaufort         266 461160.29                   2902.76               
 3 2010  Bech              65 621760.22                   3280.51               
 4 2010  Beckerich        176 444498.68                   2867.88               
 5 2010  Berdorf          111 504040.85                   3055.99               
 6 2010  Bertrange        264 795338.87                   4266.46               
 7 2010  Bettembourg      304 555628.29                   3343.22               
 8 2010  Bettendorf        94 495074.38                   3235.26               
 9 2010  Betzdorf         119 625914.47                   3343.05               
10 2010  Bissen            70 516465.57                   3321.65               
# ℹ 1,333 more rows
# ℹ abbreviated name: ¹​average_price_m2_nominal_euros
…
We can see that the city of Luxembourg is spelled in two different ways. It’s the same with another commune:

# A tibble: 2 × 2
  locality     n
  <chr>    <int>
1 Petange      9
2 Pétange      2

Now, let’s correct both these issues:

Converting “average” columns to numeric causes some NA values. Let’s see what happened:

# A tibble: 290 × 5
   year  locality         n_offers average_price_nomina…¹ average_price_m2_nom…²
   <chr> <chr>               <dbl>                  <dbl>                  <dbl>
 1 2010  Consthum               29                     NA                     NA
 2 2010  Esch-sur-Sûre           7                     NA                     NA
 3 2010  Heiderscheid           29                     NA                     NA
 4 2010  Hoscheid               26                     NA                     NA
 5 2010  Saeul                  14                     NA                     NA
 6 2010  <NA>                   NA                     NA                     NA
 7 2010  <NA>                   NA                     NA                     NA
 8 2010  Total d'offres      19278                     NA                     NA
 9 2010  <NA>                   NA                     NA                     NA
10 2010  Source : Minist…       NA                     NA                     NA
# ℹ 280 more rows
# ℹ abbreviated names: ¹​average_price_nominal_euros,
#   ²​average_price_m2_nominal_euros
…
